[
  {
    "normalForm": "ober",
    "id": 100000,
    "stem": "gra",
    "present": {
      "stem": "gr",
      "singThird": "gra",
      "plurFirst": "greomp",
      "plurThird": "greont",
      "impersonal": "greer"
    },
    "preterite": {
      "stem": "gre",
      "singFirst": "gris"
    },
    "imperative": {
      "plurFirst": "greomp",
      "plurSecond": "grit"
    },
    "future": {
      "signFirst": "grin",
      "singSecond": "gri",
      "singThird": "gray",
      "plurSecond": "greot",
      "impersonal": "greor"
    }
  },
  {
    "normalForm": "sevel",
    "stem": "sav",
    "id": 100001
  },
  {
    "normalForm": "bezañ",
    "id": 100002,
    "present": {
      "singFirst": "on",
      "singSecond": "out",
      "singThird": [ "zo", "eo", "eus" ],
      "plurFirst": "omp",
      "plurSecond": "oc'h",
      "plurThird": "int",
      "impersonal": "oar, eur"
    },
    "present_situative": {
      "singFirst": "emaon",
      "singSecond": "emaout",
      "singThird": "emañ",
      "plurFirst": "emaomp",
      "plurSecond": "emaoc'h",
      "plurThird": "emaint",
      "impersonal": "emeur"
    },
    "present_habitual": {},
    "future": {
      "singFirst": [ "bin", "bezin" ],
      "singSecond": [ "bi", "bezi"],
      "singThird": [ "bo", "bezo" ],
      "plurFirst": ["bimp", "bezimp" ],
      "plurSecond": "biot",
      "plurThird": [ "bent", "bezint" ],
      "impersonal": "bior"
    },
    "imperfect": {
      "singFirst": "oan",
      "singSecond": "oas",
      "singThird": "oa",
      "plurFirst": "oamp",
      "plurSecond": "oac'h",
      "plurThird": "oant",
      "impersonal": "oad"
    },
    "imperfect_habitual": {},
    "preterite": {
      "singFirst": "boen",
      "singSecond": "boes",
      "singThird": "boe",
      "plurFirst": "boemp",
      "plurSecond": "boec'h",
      "plurThird": "boent",
      "impersonal": "boed"
    },
    "conditional_present": {
      "singFirst": [ "befen", "ben" ],
      "singSecond": [ "befes", "bes"],
      "singThird": [ "befe", "be" ],
      "plurFirst": ["befemp", "bemp" ],
      "plurSecond": [ "befec'h", "bec'h" ],
      "plurThird": [ "befent", "bent" ],
      "impersonal": "befed"
    },
    "conditional_imperfect": {
      "stem": "bi"
    }
  },
  {
    "normalForm": "kaout",
    "id": 100003,
    "present": {
      "singFirst": [ "am eus", "meus" ],
      "singSecond": [ "az peus", "ac'h eus", "teus" ],
      "singThird": [ "en deus", "neus", "he deus", "neus" ],
      "plurFirst": [ "hon neus", "oneus" ],
      "plurSecond": [ "hoc'h eus", "peus" ],
      "plurThird": [ "o deus", "deus"],
      "impersonal": []
    },
    "present_habitual": {
      "singFirst": [ "am bez", "mez" ],
      "singSecond": [ "az pez", "pez" ],
      "singThird": [ "en devez", "nez", "he devez", "dez" ],
      "plurFirst": [ "hor bez", "obez" ],
      "plurSecond": [ "ho pez", "pez" ],
      "plurThird": [ "o devez", "dez"],
      "impersonal": []
    },
    "future": {
      "singFirst": [ "am bo", "mo", "am vezo" ],
      "singSecond": [ "az po", "to", "az pezo" ],
      "singThird": [ "en devo", "no", "en devezo", "he devo", "do", "he devezo" ],
      "plurFirst": [ "hor bo", "obo", "hor bezo" ],
      "plurSecond": [ "ho po", "po", "ho pezo" ],
      "plurThird": [ "o devo", "do", "do devezo"],
      "impersonal": []
    },
    "imperfect": {
      "singFirst": [ "am boa", "moa" ],
      "singSecond": [ "az poa", "toa" ],
      "singThird": [ "en doa", "noa", "he doa", "doa" ],
      "plurFirst": [ "hor boa", "oboa" ],
      "plurSecond": [ "ho poa", "poa" ],
      "plurThird": [ "o doa", "doa" ],
      "impersonal": []
    },
    "imperfect_habitual": {
      "singFirst": [ "am boa", "moa" ],
      "singSecond": [ "az poa", "toa" ],
      "singThird": [ "en devoa", "noa", "he devoa", "doa" ],
      "plurFirst": [ "hor boa", "oboa" ],
      "plurSecond": [ "ho poa", "poa" ],
      "plurThird": [ "o devoa", "doa" ],
      "impersonal": []
    },
    "preterite": {
      "singFirst": [ "am boe", "moe" ],
      "singSecond": [ "az poe", "toe" ],
      "singThird": [ "en devoe", "noe", "he devoe", "doe" ],
      "plurFirst": [ "hor boe", "boe" ],
      "plurSecond": [ "ho poe", "poe" ],
      "plurThird": [ "o devoe", "doe" ],
      "impersonal": []
    },
    "conditional_present": {
      "singFirst": [ "am bije", "mije" ],
      "singSecond": [ "az pije", "tije" ],
      "singThird": [ "en devije", "nije", "he devije", "dije" ],
      "plurFirst": [ "hor bije", "obije" ],
      "plurSecond": [ "ho pije", "pije" ],
      "plurThird": [ "o devije", "dije" ],
      "impersonal": []
    },
    "conditional_imperfect": {
      "singFirst": [ "am befe", "mefe" ],
      "singSecond": [ "az pefe", "tefe" ],
      "singThird": [ "en devefe", "nefe", "he devefe", "defe" ],
      "plurFirst": [ "hor befe", "obefe" ],
      "plurSecond": [ "ho pefe", "pefe" ],
      "plurThird": [ "o devefe", "defe" ],
      "impersonal": []
    },
    "imperative": {
      "singFirst": "am bezet",
      "singSecond": "az pezet, az pez",
      "singThird": [ "en devezet", "he devezet" ],
      "plurFirst": "hor bezet",
      "plurSecond": "ho pezet, ho pet",
      "plurThird": "o devezet",
      "impersonal": []
    }
  },
  {
    "normalForm": "azezañ",
    "id": 100004
  },
  {
    "normalForm": "barn",
    "id": 100005
  },
  {
    "normalForm": "beajiñ",
    "id": 100006
  },
  {
    "normalForm": "gouzout",
    "id": 100007,
    "present": {
      "singFirst": "gouzon",
      "singSecond": "gouzout",
      "singThird": "goar",
      "plurSecond": "gouzoc'h"
    },
    "imperfect": {
      "stem": "goui"
    },
    "preterite": {
      "stem": "goue",
      "singFirst": "gouezis",
      "singThird": "gouezas"
    },
    "future": {
      "stem": "gouez"
    },
    "conditional_present": {
      "stem": "gou"
    },
    "conditional_imperfect": {
      "stem": "goui"
    },
    "imperative": {
      "stem": "gouez"
    }
  }
]