[
  {
    "normalForm": "absennol",
    "equative": "cyn absennol"
  },
  {
    "normalForm": "bach",
    "comparative": "llai",
    "superlative": "lleia"
  },
  {
    "normalForm": "bwerus"
  },
  {
    "normalForm": "cariadus",
    "etymology": "From cariad (“love; beloved one”) + -us"
  },
  {
    "normalForm": "cenedlaethol"
  },
  {
    "normalForm": "da",
    "equative": "cystal",
    "comparative": "gwell",
    "superlative": "gorau"
  },
  {
    "normalForm": "deallus"
  },
  {
    "normalForm": "drwg",
    "etymology": "From Proto-Celtic *drukos (compare Old Irish droch).",
    "equative": "cynddrwg",
    "comparative": "gwaeth",
    "superlative": "gwaetha"
  },
  {
    "normalForm": "du"
  },
  {
    "normalForm": "glas"
  },
  {
    "normalForm": "gwlyb",
    "equative": "mor wlyb"
  },
  {
    "normalForm": "gwreiddiol"
  },
  {
    "normalForm": "ifanc"
  },
  {
    "normalForm": "llosg",
    "stem": "llosg",
    "equative": "llosged",
    "etymology": "From Middle Welsh llosg, from Old Welsh losc, from Proto-Celtic *lowsk-, from Proto-Indo-European *lewksḱ-, from *lewk- (“bright”). Cognate of Old Irish losc and Old Cornish losc."
  },
  {
    "normalForm": "mawr",
    "equative": "cymaint"
  },
  {
    "normalForm": "meddal"
  },
  {
    "normalForm": "mawr",
    "comparative": "mwy",
    "superlative": "mwya"
  },
  {
    "normalForm": "oer"
  },
  {
    "normalForm": "personol"
  },
  {
    "normalForm": "plyg",
    "equative": "cyn plyg",
    "comparative": "mwy plyg",
    "superlative": "mwyaf plyg"
  },
  {
    "normalForm": "presennol",
    "comparable": false
  },
  {
    "normalForm": "pwysig"
  }
]